Multiple regression modelling
…
        Lessons
        Tests & trainings
        Presentations
        Materials
        
        Source on GitHub

    R Introduction
    Corellation and linear regression
    Basic models in R
    Multiple regression modelling

Multiple regression modelling

## # A tibble: 1,379 × 6
##        earn height    sex     race    ed   age
##       <dbl>  <dbl>  <chr>    <chr> <int> <int>
## 1  79571.30  73.89   male    white    16    49
## 2  96396.99  66.23 female    white    16    62
## 3  48710.67  63.77 female    white    16    33
## 4  80478.10  63.22 female    other    16    95
## 5  82089.35  63.08 female    white    17    43
## 6  15313.35  64.53 female    white    15    30
## 7  47104.17  61.54 female    white    12    53
## 8  50960.05  73.29   male    white    17    50
## 9   3212.65  72.24   male hispanic    15    25
## 10 42996.64  72.40   male    white    12    30
## # ... with 1,369 more rows

## # A tibble: 48 × 5
##          state  abbr   low murder tc2009
##          <chr> <chr> <int>  <dbl>  <dbl>
## 1      Alabama    AL   -27    7.1 4337.5
## 2       Alaska    AK   -80    3.2 3567.1
## 3      Arizona    AZ   -40    5.5 3725.2
## 4     Arkansas    AR   -29    6.3 4415.4
## 5   California    CA   -45    5.4 3201.6
## 6     Colorado    CO   -61    3.2 3024.5
## 7  Connecticut    CT   -32    3.0 2646.3
## 8     Delaware    DE   -17    4.6 3996.8
## 9      Florida    FL    -2    5.5 4453.7
## 10     Georgia    GA   -17    6.0 4180.6
## # ... with 38 more rows
…
